%YAML 1.1
%TAG !u! tag:unity3d.com,2011:
--- !u!114 &11400000
MonoBehaviour:
  m_ObjectHideFlags: 0
  m_CorrespondingSourceObject: {fileID: 0}
  m_PrefabInstance: {fileID: 0}
  m_PrefabAsset: {fileID: 0}
  m_GameObject: {fileID: 0}
  m_Enabled: 1
  m_EditorHideFlags: 0
  m_Script: {fileID: 11500000, guid: e2d026a062a45cd4bb838c4d11147d4d, type: 3}
  m_Name: GameSettings
  m_EditorClassIdentifier: 
  Rounds:
  - {fileID: 11400000, guid: 0a86247b32a56724a9bea076fd61d415, type: 2}
  - {fileID: 11400000, guid: 200ffce058fb16b498b0450e539220d9, type: 2}
  - {fileID: 11400000, guid: a79328fcc4d1a8a429c1bf29ba2d7067, type: 2}
  GameOverMonsterCount: 10
